…
``` r
nsComfortSuites <- neatlystart(corpus=ComfortSuites, subject="Comfort Suites")
nsMotel6 <- neatlystart(corpus=Motel6, subject="Motel 6")
nsGovernorHotel <- neatlystart(corpus=GovernorHotel, subject="The Governor Hotel")
```

## Create a subject annotations for all subjects

 Use the `combinesubjects` function by passing a list of neatlystart output using 03 of the lexicon `nrc`, `bing` or `loughran`. This function help analysis all 03 subjects at once so we can draw a contrast.
 
```r
nrcSubjects <- factcheckr::combinesubjects(list(nsComfortSuites, nsMotel6, nsGovernorHotel), lex="nrc")

# A tibble: 4,119 × 4
# Groups:   Subject [3]
   Word    Subject        words sentiment   
   <chr>   <fct>          <int> <fct>       
 1 medical Comfort Suites  5533 anticipation
 2 medical Comfort Suites  5533 fear        
 3 medical Comfort Suites  5533 positive    
 4 medical Comfort Suites  5533 trust       
 5 center  Comfort Suites  5533 positive    
 6 center  Comfort Suites  5533 trust       
 7 clean   Comfort Suites  5533 joy         
 8 clean   Comfort Suites  5533 positive    
 9 clean   Comfort Suites  5533 trust       
10 decent  Comfort Suites  5533 positive
# ℹ 4,109 more rows
```

Using bing lexicon gives a comparable results

```r
bingSubjects <- factcheckr::combinesubjects(list(nsComfortSuites, nsMotel6, nsGovernorHotel), lex="bing")
# A tibble: 1,533 × 4
# Groups:   Subject [3]
   Word           Subject        words sentiment
   <chr>          <fct>          <int> <fct>    
 1 clean          Comfort Suites  5533 positive 
 2 decent         Comfort Suites  5533 positive 
 3 negative       Comfort Suites  5533 negative 
 4 pathetic       Comfort Suites  5533 negative 
 5 discriminatory Comfort Suites  5533 negative 
 6 free           Comfort Suites  5533 positive 
 7 accessible     Comfort Suites  5533 positive 
 8 issue          Comfort Suites  5533 negative 
 9 unreasonable   Comfort Suites  5533 negative 
10 remedy         Comfort Suites  5533 positive 
# ℹ 1,523 more rows
…
